Homework 8: Basic Modeling Practice
…
# A tibble: 1 × 3
  .metric .estimator .estimate
  <chr>   <chr>          <dbl>
1 rmse    standard       2950.

Obtain the final model coefficient table.

best_fit |>
  extract_fit_parsnip() |>
  tidy()

# A tibble: 30 × 5
   term                                estimate std.error statistic  p.value
   <chr>                                  <dbl>     <dbl>     <dbl>    <dbl>
 1 (Intercept)                           15127.     2181.     6.93  3.97e-11
 2 seasons_Spring                        -7314.     3715.    -1.97  5.02e- 2
 3 seasons_Summer                        17027.     3515.     4.84  2.33e- 6
 4 seasons_Winter                        -7739.     3180.    -2.43  1.57e- 2
 5 holiday_No.Holiday                     6216.     2055.     3.03  2.77e- 3
 6 day_of_week_weekend                   -2433.      392.    -6.21  2.47e- 9
 7 holiday_No.Holiday_x_seasons_Spring    2520.     3752.     0.672 5.02e- 1
 8 holiday_No.Holiday_x_seasons_Summer   -2849.     2881.    -0.989 3.24e- 1
 9 holiday_No.Holiday_x_seasons_Winter   -3753.     2459.    -1.53  1.28e- 1
10 seasons_Spring_x_mean_temperature_c    4524.     1115.     4.06  6.80e- 5
# ℹ 20 more rows
